c file 

/* constants --------------------------------------------------------------*/
/* Local Variables --------------------------------------------------------*/
/* Private prototypes ---------------------------------------------------- */
/* Macros -----------------------------------------------------------------*/
/* Public functions -------------------------------------------------------*/
/* Private functions ----------------------------------------------------- */


#ifndef 
#define 
/* Dependencies -------------------------------------------- */
/* MACROS ---------------------------------------------------*/
/*Constants -------------------------------------------------*/
/*Public functions ------------------------------------------*/
#endif

